Time	Site	Sampled
0	S68	y
1	S58	n
1	S67	n
1	S69	n
1	S78	n
2	S48	n
2	S57	n
2	S59	n
2	S66	n
2	S77	n
2	S79	n
2	S88	n
3	S38	n
3	S47	n
3	S49	n
3	S56	n
3	S65	n
3	S76	n
3	S87	n
3	S89	n
3	S98	n
4	S28	n
4	S37	n
4	S39	n
4	S46	n
4	S55	n
4	S64	n
4	S75	n
4	S86	y
4	S97	n
4	S99	n
5	S18	y
5	S27	n
5	S29	n
5	S36	y
5	S45	n
5	S54	n
5	S63	n
5	S74	n
5	S85	n
5	S96	n
6	S8	n
6	S17	n
6	S19	n
6	S26	n
6	S35	n
6	S44	y
6	S53	n
6	S62	n
6	S73	n
6	S84	n
6	S95	n
7	S7	n
7	S9	n
7	S16	n
7	S25	n
7	S34	n
7	S43	n
7	S52	n
7	S61	n
7	S72	y
7	S83	n
7	S94	n
8	S6	n
8	S15	n
8	S24	n
8	S33	n
8	S42	n
8	S51	n
8	S60	n
8	S71	n
8	S82	n
8	S93	n
9	S5	n
9	S14	n
9	S23	n
9	S32	n
9	S41	n
9	S50	y
9	S70	n
9	S81	n
9	S92	y
10	S4	n
10	S13	n
10	S22	y
10	S31	n
10	S40	n
10	S80	n
10	S91	n
11	S3	n
11	S12	n
11	S21	n
11	S30	n
11	S90	n
12	S2	n
12	S11	n
12	S20	n
13	S1	n
13	S10	n
14	S0	y
